input: move to tv
output: [[1,8],[0,0]] -- [0,0] for stop

iterNum:0
loss in instruction num 0:37.4878269177
loss in instruction num 1:35.7357718293
355.215744019
iterNum:1
loss in instruction num 0:29.1635985018
loss in instruction num 1:2.70883835184
354.424604177
iterNum:2
loss in instruction num 0:2.38191284437
loss in instruction num 1:2.70835059984
354.133775949
iterNum:3
loss in instruction num 0:0.696168690805
loss in instruction num 1:2.70870177991
348.954442024
iterNum:4
loss in instruction num 0:0.696102035919
loss in instruction num 1:2.70863950821
335.457123995
iterNum:5
loss in instruction num 0:0.696033882994
loss in instruction num 1:2.70858929246
334.593189001
iterNum:6
loss in instruction num 0:0.695964294652
loss in instruction num 1:2.70854795215
335.287739038
iterNum:7
loss in instruction num 0:0.695893360044
loss in instruction num 1:2.70851334055
335.294384956
iterNum:8
loss in instruction num 0:0.695821200368
loss in instruction num 1:2.70848395218
334.639108896
iterNum:9
loss in instruction num 0:0.695747975532
loss in instruction num 1:2.70845869711
335.118455887
iterNum:10
loss in instruction num 0:0.695673891566
loss in instruction num 1:2.70843676444
335.111984015
iterNum:11
loss in instruction num 0:0.695599207902
loss in instruction num 1:2.70841753633
334.518994093
iterNum:12
loss in instruction num 0:0.695524242935
loss in instruction num 1:2.70840053195
334.977643967
iterNum:13
loss in instruction num 0:0.69544937582
loss in instruction num 1:2.70838537003
335.027529001
iterNum:14
loss in instruction num 0:0.695375042245
loss in instruction num 1:2.70837174323
334.58368516
iterNum:15
loss in instruction num 0:0.695301722427
loss in instruction num 1:2.70835940053
335.23884511
iterNum:16
loss in instruction num 0:0.695229920874
loss in instruction num 1:2.70834813494
334.551341057
iterNum:17
loss in instruction num 0:0.695160139329
loss in instruction num 1:2.70833777498
335.07814908
iterNum:18
loss in instruction num 0:0.6950928463
loss in instruction num 1:2.70832817864
335.011235952
iterNum:19
loss in instruction num 0:0.695028447869
loss in instruction num 1:2.70831922895
334.476480961
